,a1,a2,a3,a4,a5,a6,a7,a8,a9,a10,a11,a12,a13,a14,a15,a16,a17,a18,a19,a20
a1,1,1,0,1,0,1,0,0,0,0,0,0,1,0,1,0,0,0,0,1
a2,1,1,1,1,1,0,1,1,0,0,0,0,1,1,0,0,0,0,0,1
a3,1,1,1,1,1,1,1,1,0,0,1,0,1,1,0,0,1,0,0,1
a4,0,1,1,1,1,0,0,0,0,0,0,0,1,1,0,0,0,0,0,1
a5,0,0,0,0,1,0,1,0,0,0,0,0,1,1,0,0,0,0,0,0
a6,1,1,1,1,1,1,1,1,0,0,0,1,1,1,1,0,1,0,1,1
a7,0,0,0,0,1,0,1,0,0,0,0,0,1,1,0,0,0,0,0,0
a8,0,0,0,0,1,0,0,1,0,1,0,1,1,1,1,0,1,1,1,0
a9,1,1,1,1,1,1,0,1,1,0,0,1,1,1,1,1,1,0,1,1
a10,1,0,0,0,1,0,1,1,0,1,1,1,1,1,1,0,1,1,1,1
a11,1,0,0,0,1,0,1,1,0,1,1,1,1,1,1,0,1,0,0,1
a12,1,0,0,0,1,0,1,1,0,1,1,1,1,1,1,0,1,1,1,1
a13,0,0,0,0,1,0,0,0,0,0,0,0,1,1,0,0,0,0,0,0
a14,0,0,0,0,1,0,1,0,0,0,0,0,1,1,0,0,0,0,0,1
a15,1,0,0,0,1,1,1,1,0,0,0,1,1,1,1,0,1,0,1,1
a16,0,0,0,0,1,0,1,1,0,1,1,1,1,1,1,1,1,1,0,0
a17,0,0,0,0,1,0,1,1,0,1,1,1,1,1,1,0,1,1,1,0
a18,0,0,0,0,1,0,1,1,0,1,1,1,1,1,1,1,1,1,0,0
a19,0,0,0,0,1,0,1,1,0,0,0,1,1,0,0,1,1,0,1,0
a20,1,0,0,0,0,0,0,0,0,0,0,0,0,0,0,0,0,0,0,1
