,a0,a1,a2,a3,a4,a5,a6,a7,a8,a9,a10,a11,a12,a13,a14,a15,a16,a17
a0,1,1,1,1,1,1,1,1,1,0,1,1,1,1,0,1,0,1
a1,0,1,1,1,0,0,1,0,1,0,0,0,1,1,0,0,0,1
a2,1,1,1,1,1,0,1,1,1,0,1,1,1,1,0,1,0,1
a3,0,1,1,1,0,0,1,1,1,0,0,0,1,1,0,1,0,1
a4,1,1,1,1,1,1,1,1,1,0,1,1,1,1,0,1,0,1
a5,0,0,0,0,0,1,0,0,0,1,0,0,0,1,0,0,0,0
a6,0,1,1,1,0,0,1,1,1,0,0,0,1,1,0,1,0,1
a7,1,1,1,1,0,0,1,1,1,1,0,1,1,1,0,1,0,1
a8,1,1,1,1,1,1,1,1,1,0,1,1,1,1,0,1,0,1
a9,0,0,0,0,0,1,0,0,0,1,0,0,0,1,0,0,0,0
a10,1,1,1,1,1,1,1,1,1,1,1,1,1,1,0,1,0,1
a11,1,1,1,1,1,1,1,1,1,1,1,1,1,1,0,1,0,1
a12,1,1,1,1,1,1,1,1,1,0,1,1,1,1,0,1,0,1
a13,0,0,0,0,0,0,0,0,0,0,0,0,0,1,0,0,0,0
a14,1,1,1,1,1,1,1,1,1,1,1,1,1,1,1,1,1,1
a15,1,1,1,1,1,0,1,1,1,0,1,1,1,1,0,1,0,1
a16,1,1,1,1,1,1,1,1,1,1,1,1,1,1,1,1,1,1
a17,1,1,1,1,1,1,1,1,1,0,0,1,1,1,0,1,0,1
