,a0,a1,a2,a3,a4,a5,a6,a7,a8,a9,a10,a11,a12,a13,a14
a0,1,1,1,1,1,0,0,1,0,1,0,1,1,0,1
a1,0,1,0,0,1,0,0,1,0,0,0,1,1,0,1
a2,1,1,1,1,1,1,1,1,0,1,0,1,1,0,1
a3,1,1,0,1,1,0,0,0,0,1,0,1,1,0,0
a4,0,1,0,0,1,0,0,1,0,0,0,1,1,0,1
a5,0,1,1,0,1,1,1,1,0,0,0,1,1,1,1
a6,0,1,1,0,1,1,1,1,0,0,0,1,1,0,1
a7,0,1,0,0,1,0,1,1,0,0,0,1,1,0,1
a8,1,1,1,1,1,1,1,1,1,1,1,1,1,0,1
a9,1,1,1,1,1,0,0,1,0,1,1,1,1,0,1
a10,1,1,1,1,1,0,0,1,0,1,1,1,1,0,1
a11,0,0,0,0,1,0,0,1,0,0,0,1,1,0,1
a12,0,1,0,0,1,0,0,1,0,0,0,1,1,0,1
a13,0,1,0,0,1,0,1,1,0,0,0,1,1,1,1
a14,0,1,0,0,1,0,1,1,0,0,0,1,1,0,1
