,a1,a2,a3,a4,a5,a6,a7,a8,a9,a10,a11,a12,a13,a14,a15,a16,a17,a18,a19,a20
a1,1,0,0,0,1,1,1,1,0,1,1,0,0,0,1,1,0,0,0,0
a2,1,1,1,1,1,1,1,1,1,1,1,1,1,1,1,1,1,1,1,1
a3,0,0,1,0,1,1,1,0,1,1,0,0,0,0,1,0,0,0,1,0
a4,1,0,1,1,1,1,1,0,0,1,1,0,1,0,1,1,1,0,0,0
a5,0,0,0,0,1,0,1,0,0,1,0,0,0,0,0,0,0,0,1,0
a6,0,0,1,0,1,1,1,0,1,1,0,0,0,0,1,0,0,0,1,1
a7,0,0,0,0,1,0,1,0,0,1,0,0,0,0,0,0,0,0,0,0
a8,1,0,1,0,1,1,1,1,1,1,1,1,1,0,1,1,0,1,1,1
a9,0,0,0,0,1,1,1,0,1,1,0,0,0,0,1,0,0,0,1,1
a10,0,0,0,0,1,0,1,0,0,1,0,0,0,0,0,0,0,0,1,0
a11,1,0,1,0,1,1,1,1,0,1,1,1,1,0,1,1,0,1,0,0
a12,1,0,1,1,1,1,1,1,1,1,1,1,1,0,1,1,0,1,1,1
a13,1,0,1,0,1,1,1,1,1,1,1,1,1,0,1,1,0,1,1,1
a14,1,1,1,1,1,1,1,1,1,1,1,1,1,1,1,1,1,1,1,1
a15,0,0,0,0,0,0,1,0,0,0,0,0,0,0,1,0,0,0,0,0
a16,1,0,1,1,1,1,1,0,0,1,1,0,1,0,1,1,1,0,0,0
a17,1,0,0,1,0,0,1,0,0,0,1,0,0,0,1,1,1,0,0,0
a18,1,0,1,0,1,1,1,1,1,1,1,1,1,0,1,0,0,1,1,1
a19,0,0,0,0,1,0,1,0,0,1,0,0,0,0,0,0,0,0,1,0
a20,0,0,0,0,1,1,1,0,1,1,0,0,0,0,1,0,0,1,1,1
