,g1,g2,g3,g4,g5,g6,g7
a1,0.274,0.571,0.075,0.922,0.038,0.388,0.105
a2,0.119,0.406,0.361,0.199,0.882,0.93,0.442
a3,0.626,0.599,0.756,0.389,0.028,0.706,0.533
a4,0.259,0.428,0.55,0.239,0.586,0.895,0.31
a5,0.808,0.637,0.662,0.139,0.639,0.857,0.346
a6,0.897,0.641,0.221,0.541,0.07,0.465,0.228
a7,0.998,0.314,0.538,0.939,0.386,0.095,0.987
a8,0.93,0.805,0.268,0.746,0.248,0.435,0.501
a9,0.669,0.175,0.162,0.98,0.431,0.761,0.255
a10,0.99,0.408,0.524,0.675,0.862,0.355,0.419
a11,0.715,0.439,0.51,0.219,0.101,0.848,0.309
a12,0.271,0.859,0.782,0.7,0.605,0.702,0.186
a13,0.473,0.59,0.633,0.018,0.319,0.389,0.663
a14,0.331,0.793,0.559,0.582,0.022,0.337,0.16
a15,0.655,0.825,0.388,0.686,0.173,0.79,0.37
a16,0.403,0.73,0.781,0.143,0.491,0.918,0.856
a17,0.104,0.451,0.763,0.835,0.642,0.687,0.065
a18,0.608,0.053,0.869,0.46,0.514,0.971,0.798
a19,0.372,0.9,0.834,0.057,0.306,0.155,0.449
a20,0.648,0.925,0.435,0.479,0.914,0.066,0.906
a21,0.356,0.387,0.002,0.762,0.626,0.292,0.974
a22,0.297,0.013,0.598,0.27,0.342,0.809,0.04
a23,0.424,0.565,0.841,0.809,0.617,0.151,0.518
a24,0.137,0.287,0.96,0.226,0.062,0.119,0.476
a25,0.65,0.535,0.118,0.569,0.472,0.549,0.362
a26,0.681,0.037,0.789,0.369,0.313,0.698,0.732
a27,0.96,0.38,0.227,0.346,0.165,0.525,0.894
a28,0.848,0.073,0.616,0.932,0.414,0.467,0.131
a29,0.756,0.119,0.151,0.695,0.569,0.049,0.109
a30,0.331,0.894,0.218,0.043,0.925,0.196,0.607
a31,0.718,0.364,0.511,0.262,0.408,0.026,0.241
a32,0.958,0.272,0.015,0.698,0.88,0.599,0.887
a33,0.272,0.285,0.531,0.188,0.373,0.939,0.029
a34,0.786,0.275,0.886,0.522,0.187,0.231,0.94
a35,0.94,0.827,0.443,0.868,0.891,0.681,0.005
a36,0.637,0.341,0.937,0.604,0.081,0.795,0.221
a37,0.375,0.222,0.524,0.95,0.306,0.469,0.704
a38,0.685,0.024,0.954,0.775,0.089,0.29,0.661
a39,0.607,0.26,0.787,0.121,0.431,0.68,0.613
a40,0.806,0.828,0.117,0.42,0.18,0.72,0.949
a41,0.413,0.918,0.69,0.6,0.649,0.732,0.869
a42,0.589,0.779,0.685,0.68,0.58,0.804,0.092
a43,0.828,0.357,0.737,0.376,0.827,0.846,0.622
a44,0.809,0.018,0.14,0.374,0.386,0.295,0.734
a45,0.322,0.501,0.627,0.496,0.352,0.394,0.848
a46,0.826,0.323,0.981,0.365,0.254,0.877,0.299
a47,0.336,0.509,0.418,0.589,0.52,0.217,0.799
a48,0.374,0.544,0.646,0.778,0.624,0.485,0.351
a49,0.351,0.971,0.41,0.094,0.624,0.973,0.294
a50,0.423,0.645,0.051,0.024,0.258,0.163,0.161
a51,0.859,0.211,0.248,0.64,0.207,0.788,0.985
a52,0.362,0.636,0.382,0.599,0.22,0.058,0.734
a53,0.524,0.178,0.831,0.921,0.727,0.383,0.031
a54,0.351,0.602,0.674,0.894,0.916,0.482,0.429
a55,0.019,0.828,0.301,0.444,0.997,0.096,0.151
a56,0.456,0.782,0.826,0.681,0.9,0.341,0.869
a57,0.658,0.157,0.528,0.038,0.553,0.952,0.748
a58,0.854,0.19,0.548,0.172,0.955,0.602,0.588
a59,0.889,0.504,0.277,0.847,0.06,0.935,0.285
a60,0.75,0.809,0.696,0.875,0.165,0.404,0.195
